{
    "properties": [
        {
            "modifiers": [
                "public"
            ], 
            "name": "search", 
            "visibility": "PUBLIC", 
            "references": [], 
            "location": {
                "column": 19, 
                "line": 3
            }, 
            "type": "String"
        }, 
        {
            "modifiers": [
                "public"
            ], 
            "name": "temp", 
            "visibility": "PUBLIC", 
            "references": [], 
            "location": {
                "column": 19, 
                "line": 4
            }, 
            "type": "String"
        }, 
        {
            "modifiers": [
                "public"
            ], 
            "name": "dataSetOne", 
            "visibility": "PUBLIC", 
            "references": [], 
            "location": {
                "column": 31, 
                "line": 5
            }, 
            "type": "LIST"
        }
    ], 
    "externalReferences": [], 
    "innerClasses": [
        {
            "properties": [
                {
                    "modifiers": [
                        "public"
                    ], 
                    "name": "f1", 
                    "visibility": "PUBLIC", 
                    "references": [], 
                    "location": {
                        "column": 23, 
                        "line": 49
                    }, 
                    "type": "String"
                }, 
                {
                    "modifiers": [
                        "public"
                    ], 
                    "name": "f2", 
                    "visibility": "PUBLIC", 
                    "references": [], 
                    "location": {
                        "column": 23, 
                        "line": 50
                    }, 
                    "type": "String"
                }, 
                {
                    "modifiers": [
                        "public"
                    ], 
                    "name": "f3", 
                    "visibility": "PUBLIC", 
                    "references": [], 
                    "location": {
                        "column": 23, 
                        "line": 51
                    }, 
                    "type": "String"
                }
            ], 
            "externalReferences": [], 
            "innerClasses": [], 
            "interfaces": [], 
            "constructors": [
                {
                    "modifiers": [
                        "public"
                    ], 
                    "name": "superItemMapOne", 
                    "parameters": [
                        {
                            "type": "String", 
                            "name": "fc1"
                        }, 
                        {
                            "type": "String", 
                            "name": "fc2"
                        }, 
                        {
                            "type": "String", 
                            "name": "fc3"
                        }
                    ], 
                    "visibility": "PUBLIC", 
                    "references": [], 
                    "location": {
                        "column": 16, 
                        "line": 54
                    }, 
                    "type": null
                }
            ], 
            "namespace": null, 
            "name": "superItemMapOne", 
            "tableDeclaration": {
                "type": "superItemMapOne", 
                "modifiers": [
                    "public"
                ], 
                "references": [], 
                "location": {
                    "column": 19, 
                    "line": 48
                }, 
                "name": "superItemMapOne"
            }, 
            "key": null, 
            "variables": [
                {
                    "type": "String", 
                    "modifiers": [], 
                    "references": [], 
                    "location": {
                        "column": 39, 
                        "line": 54
                    }, 
                    "name": "fc1"
                }, 
                {
                    "type": "String", 
                    "modifiers": [], 
                    "references": [], 
                    "location": {
                        "column": 51, 
                        "line": 54
                    }, 
                    "name": "fc2"
                }, 
                {
                    "type": "String", 
                    "modifiers": [], 
                    "references": [], 
                    "location": {
                        "column": 64, 
                        "line": 54
                    }, 
                    "name": "fc3"
                }
            ], 
            "id": null, 
            "methods": []
        }, 
        {
            "properties": [
                {
                    "modifiers": [
                        "public"
                    ], 
                    "name": "kind", 
                    "visibility": "PUBLIC", 
                    "references": [], 
                    "location": {
                        "column": 23, 
                        "line": 68
                    }, 
                    "type": "String"
                }, 
                {
                    "modifiers": [
                        "public"
                    ], 
                    "name": "etag", 
                    "visibility": "PUBLIC", 
                    "references": [], 
                    "location": {
                        "column": 23, 
                        "line": 69
                    }, 
                    "type": "String"
                }, 
                {
                    "modifiers": [
                        "public"
                    ], 
                    "name": "nextPageToken", 
                    "visibility": "PUBLIC", 
                    "references": [], 
                    "location": {
                        "column": 23, 
                        "line": 70
                    }, 
                    "type": "String"
                }, 
                {
                    "modifiers": [
                        "public"
                    ], 
                    "name": "pageInfo", 
                    "visibility": "PUBLIC", 
                    "references": [], 
                    "location": {
                        "column": 29, 
                        "line": 71
                    }, 
                    "type": "cls_pageInfo"
                }, 
                {
                    "modifiers": [
                        "public"
                    ], 
                    "name": "items", 
                    "visibility": "PUBLIC", 
                    "references": [], 
                    "location": {
                        "column": 28, 
                        "line": 72
                    }, 
                    "type": "LIST"
                }
            ], 
            "externalReferences": [], 
            "innerClasses": [], 
            "interfaces": [], 
            "constructors": [], 
            "namespace": null, 
            "name": "fromJSON", 
            "tableDeclaration": {
                "type": "fromJSON", 
                "modifiers": [
                    "public"
                ], 
                "references": [], 
                "location": {
                    "column": 18, 
                    "line": 67
                }, 
                "name": "fromJSON"
            }, 
            "key": null, 
            "variables": [], 
            "id": null, 
            "methods": []
        }, 
        {
            "properties": [
                {
                    "modifiers": [
                        "public"
                    ], 
                    "name": "totalResults", 
                    "visibility": "PUBLIC", 
                    "references": [], 
                    "location": {
                        "column": 24, 
                        "line": 80
                    }, 
                    "type": "Integer"
                }, 
                {
                    "modifiers": [
                        "public"
                    ], 
                    "name": "resultsPerPage", 
                    "visibility": "PUBLIC", 
                    "references": [], 
                    "location": {
                        "column": 24, 
                        "line": 81
                    }, 
                    "type": "Integer"
                }
            ], 
            "externalReferences": [], 
            "innerClasses": [], 
            "interfaces": [], 
            "constructors": [], 
            "namespace": null, 
            "name": "cls_pageInfo", 
            "tableDeclaration": {
                "type": "cls_pageInfo", 
                "modifiers": [], 
                "references": [], 
                "location": {
                    "column": 11, 
                    "line": 79
                }, 
                "name": "cls_pageInfo"
            }, 
            "key": null, 
            "variables": [], 
            "id": null, 
            "methods": []
        }, 
        {
            "properties": [
                {
                    "modifiers": [
                        "public"
                    ], 
                    "name": "kind", 
                    "visibility": "PUBLIC", 
                    "references": [], 
                    "location": {
                        "column": 23, 
                        "line": 84
                    }, 
                    "type": "String"
                }, 
                {
                    "modifiers": [
                        "public"
                    ], 
                    "name": "etag", 
                    "visibility": "PUBLIC", 
                    "references": [], 
                    "location": {
                        "column": 23, 
                        "line": 85
                    }, 
                    "type": "String"
                }, 
                {
                    "modifiers": [
                        "public"
                    ], 
                    "name": "id", 
                    "visibility": "PUBLIC", 
                    "references": [], 
                    "location": {
                        "column": 23, 
                        "line": 86
                    }, 
                    "type": "cls_id"
                }, 
                {
                    "modifiers": [
                        "public"
                    ], 
                    "name": "snippet", 
                    "visibility": "PUBLIC", 
                    "references": [], 
                    "location": {
                        "column": 28, 
                        "line": 87
                    }, 
                    "type": "cls_snippet"
                }
            ], 
            "externalReferences": [], 
            "innerClasses": [], 
            "interfaces": [], 
            "constructors": [], 
            "namespace": null, 
            "name": "cls_items", 
            "tableDeclaration": {
                "type": "cls_items", 
                "modifiers": [], 
                "references": [], 
                "location": {
                    "column": 11, 
                    "line": 83
                }, 
                "name": "cls_items"
            }, 
            "key": null, 
            "variables": [], 
            "id": null, 
            "methods": []
        }, 
        {
            "properties": [
                {
                    "modifiers": [
                        "public"
                    ], 
                    "name": "kind", 
                    "visibility": "PUBLIC", 
                    "references": [], 
                    "location": {
                        "column": 23, 
                        "line": 90
                    }, 
                    "type": "String"
                }, 
                {
                    "modifiers": [
                        "public"
                    ], 
                    "name": "videoId", 
                    "visibility": "PUBLIC", 
                    "references": [], 
                    "location": {
                        "column": 23, 
                        "line": 91
                    }, 
                    "type": "String"
                }
            ], 
            "externalReferences": [], 
            "innerClasses": [], 
            "interfaces": [], 
            "constructors": [], 
            "namespace": null, 
            "name": "cls_id", 
            "tableDeclaration": {
                "type": "cls_id", 
                "modifiers": [], 
                "references": [], 
                "location": {
                    "column": 11, 
                    "line": 89
                }, 
                "name": "cls_id"
            }, 
            "key": null, 
            "variables": [], 
            "id": null, 
            "methods": []
        }, 
        {
            "properties": [
                {
                    "modifiers": [
                        "public"
                    ], 
                    "name": "publishedAt", 
                    "visibility": "PUBLIC", 
                    "references": [], 
                    "location": {
                        "column": 23, 
                        "line": 94
                    }, 
                    "type": "String"
                }, 
                {
                    "modifiers": [
                        "public"
                    ], 
                    "name": "channelId", 
                    "visibility": "PUBLIC", 
                    "references": [], 
                    "location": {
                        "column": 23, 
                        "line": 95
                    }, 
                    "type": "String"
                }, 
                {
                    "modifiers": [
                        "public"
                    ], 
                    "name": "title", 
                    "visibility": "PUBLIC", 
                    "references": [], 
                    "location": {
                        "column": 23, 
                        "line": 96
                    }, 
                    "type": "String"
                }, 
                {
                    "modifiers": [
                        "public"
                    ], 
                    "name": "description", 
                    "visibility": "PUBLIC", 
                    "references": [], 
                    "location": {
                        "column": 23, 
                        "line": 97
                    }, 
                    "type": "String"
                }, 
                {
                    "modifiers": [
                        "public"
                    ], 
                    "name": "thumbnails", 
                    "visibility": "PUBLIC", 
                    "references": [], 
                    "location": {
                        "column": 31, 
                        "line": 98
                    }, 
                    "type": "cls_thumbnails"
                }, 
                {
                    "modifiers": [
                        "public"
                    ], 
                    "name": "channelTitle", 
                    "visibility": "PUBLIC", 
                    "references": [], 
                    "location": {
                        "column": 23, 
                        "line": 99
                    }, 
                    "type": "String"
                }, 
                {
                    "modifiers": [
                        "public"
                    ], 
                    "name": "liveBroadcastContent", 
                    "visibility": "PUBLIC", 
                    "references": [], 
                    "location": {
                        "column": 23, 
                        "line": 100
                    }, 
                    "type": "String"
                }
            ], 
            "externalReferences": [], 
            "innerClasses": [], 
            "interfaces": [], 
            "constructors": [], 
            "namespace": null, 
            "name": "cls_snippet", 
            "tableDeclaration": {
                "type": "cls_snippet", 
                "modifiers": [], 
                "references": [], 
                "location": {
                    "column": 11, 
                    "line": 93
                }, 
                "name": "cls_snippet"
            }, 
            "key": null, 
            "variables": [], 
            "id": null, 
            "methods": []
        }, 
        {
            "properties": [
                {
                    "modifiers": [
                        "public"
                    ], 
                    "name": "default_x", 
                    "visibility": "PUBLIC", 
                    "references": [], 
                    "location": {
                        "column": 28, 
                        "line": 103
                    }, 
                    "type": "cls_default"
                }, 
                {
                    "modifiers": [
                        "public"
                    ], 
                    "name": "medium", 
                    "visibility": "PUBLIC", 
                    "references": [], 
                    "location": {
                        "column": 27, 
                        "line": 104
                    }, 
                    "type": "cls_medium"
                }, 
                {
                    "modifiers": [
                        "public"
                    ], 
                    "name": "high", 
                    "visibility": "PUBLIC", 
                    "references": [], 
                    "location": {
                        "column": 25, 
                        "line": 105
                    }, 
                    "type": "cls_high"
                }
            ], 
            "externalReferences": [], 
            "innerClasses": [], 
            "interfaces": [], 
            "constructors": [], 
            "namespace": null, 
            "name": "cls_thumbnails", 
            "tableDeclaration": {
                "type": "cls_thumbnails", 
                "modifiers": [], 
                "references": [], 
                "location": {
                    "column": 11, 
                    "line": 102
                }, 
                "name": "cls_thumbnails"
            }, 
            "key": null, 
            "variables": [], 
            "id": null, 
            "methods": []
        }, 
        {
            "properties": [
                {
                    "modifiers": [
                        "public"
                    ], 
                    "name": "url", 
                    "visibility": "PUBLIC", 
                    "references": [], 
                    "location": {
                        "column": 23, 
                        "line": 108
                    }, 
                    "type": "String"
                }
            ], 
            "externalReferences": [], 
            "innerClasses": [], 
            "interfaces": [], 
            "constructors": [], 
            "namespace": null, 
            "name": "cls_default", 
            "tableDeclaration": {
                "type": "cls_default", 
                "modifiers": [], 
                "references": [], 
                "location": {
                    "column": 11, 
                    "line": 107
                }, 
                "name": "cls_default"
            }, 
            "key": null, 
            "variables": [], 
            "id": null, 
            "methods": []
        }, 
        {
            "properties": [
                {
                    "modifiers": [
                        "public"
                    ], 
                    "name": "url", 
                    "visibility": "PUBLIC", 
                    "references": [], 
                    "location": {
                        "column": 23, 
                        "line": 111
                    }, 
                    "type": "String"
                }
            ], 
            "externalReferences": [], 
            "innerClasses": [], 
            "interfaces": [], 
            "constructors": [], 
            "namespace": null, 
            "name": "cls_medium", 
            "tableDeclaration": {
                "type": "cls_medium", 
                "modifiers": [], 
                "references": [], 
                "location": {
                    "column": 11, 
                    "line": 110
                }, 
                "name": "cls_medium"
            }, 
            "key": null, 
            "variables": [], 
            "id": null, 
            "methods": []
        }, 
        {
            "properties": [
                {
                    "modifiers": [
                        "public"
                    ], 
                    "name": "url", 
                    "visibility": "PUBLIC", 
                    "references": [], 
                    "location": {
                        "column": 23, 
                        "line": 114
                    }, 
                    "type": "String"
                }
            ], 
            "externalReferences": [], 
            "innerClasses": [], 
            "interfaces": [], 
            "constructors": [], 
            "namespace": null, 
            "name": "cls_high", 
            "tableDeclaration": {
                "type": "cls_high", 
                "modifiers": [], 
                "references": [], 
                "location": {
                    "column": 11, 
                    "line": 113
                }, 
                "name": "cls_high"
            }, 
            "key": null, 
            "variables": [], 
            "id": null, 
            "methods": []
        }
    ], 
    "interfaces": [], 
    "constructors": [
        {
            "modifiers": [
                "public"
            ], 
            "name": "Youtube", 
            "parameters": [], 
            "visibility": "PUBLIC", 
            "references": [], 
            "location": {
                "column": 12, 
                "line": 9
            }, 
            "type": null
        }
    ], 
    "namespace": null, 
    "name": "Youtube", 
    "tableDeclaration": {
        "type": "Youtube", 
        "modifiers": [
            "public"
        ], 
        "references": [], 
        "location": {
            "column": 14, 
            "line": 1
        }, 
        "name": "Youtube"
    }, 
    "key": "01p28000000u7KNAAY", 
    "variables": [
        {
            "type": "HttpRequest", 
            "modifiers": [], 
            "references": [], 
            "location": {
                "column": 21, 
                "line": 14
            }, 
            "name": "req"
        }, 
        {
            "type": "Http", 
            "modifiers": [], 
            "references": [], 
            "location": {
                "column": 14, 
                "line": 21
            }, 
            "name": "http"
        }, 
        {
            "type": "HttpResponse", 
            "modifiers": [], 
            "references": [], 
            "location": {
                "column": 22, 
                "line": 22
            }, 
            "name": "res"
        }, 
        {
            "type": "fromJSON", 
            "modifiers": [], 
            "references": [], 
            "location": {
                "column": 18, 
                "line": 28
            }, 
            "name": "d1"
        }, 
        {
            "type": "Integer", 
            "modifiers": [], 
            "references": [], 
            "location": {
                "column": 21, 
                "line": 31
            }, 
            "name": "i"
        }
    ], 
    "id": "01p28000000u7KNAAY", 
    "methods": [
        {
            "modifiers": [
                "public"
            ], 
            "name": "getResults", 
            "parameters": [], 
            "visibility": "PUBLIC", 
            "references": [], 
            "location": {
                "column": 17, 
                "line": 12
            }, 
            "returnType": "void", 
            "type": null
        }
    ]
}